Statistics 2B - Linear Models Coursework
…
Our initial model will include all the predictors we have available:

lmod = lm(Rating~Season+Director+ChuckLorre+Leonard+Sheldon+Penny+Howard+Raj+Leslie+Bernadette+Amy+Stuart+Emily+Mary+Zack+Bert+Janine+Wil+Day, BigBangTheory)

This clearly has too many predictors. It is best for us to immediately simplify this model:

lmodr = step(lmod, trace=FALSE)

We need to check the diagnostics of this model.

dmodr = augment(lmodr)
dmodr %>% arrange(desc(.resid))

# A tibble: 231 x 12
   Rating Season Leonard Penny Day   .fitted .se.fit .resid    .hat .sigma
    <dbl>  <dbl>   <dbl> <dbl> <chr>   <dbl>   <dbl>  <dbl>   <dbl>  <dbl>
 1    9.1      9      22    23 Thur~    7.70  0.0382  1.40  0.0131   0.321
 2    8.6     10      23    32 Thur~    7.59  0.0421  1.01  0.0159   0.328
 3    9.1      3      95    28 Mond~    8.10  0.0717  1.00  0.0462   0.328
 4    8.9      7      36    41 Thur~    7.97  0.0323  0.934 0.00936  0.329
 5    8.8      7      46    40 Thur~    7.93  0.0329  0.868 0.00971  0.329
 6    9.2      2      59    49 Mond~    8.40  0.0431  0.796 0.0166   0.330
 7    8.4      9      25    19 Thur~    7.67  0.0391  0.726 0.0137   0.331
 8    8.1     10      33    42 Mond~    7.43  0.0720  0.671 0.0466   0.331
 9    8.7      5      71    24 Thur~    8.06  0.0539  0.637 0.0260   0.332
10    8.2     10      10    12 Thur~    7.57  0.0550  0.630 0.0271   0.332
# ... with 221 more rows, and 2 more variables: .cooksd <dbl>, .std.resid <dbl>

Nothing appears particually unusual about the episode with the highest residual. It has one of the highest ratings despite being later on in the series.

dmodr %>% arrange(desc(.hat))

# A tibble: 231 x 12
   Rating Season Leonard Penny Day   .fitted .se.fit  .resid   .hat .sigma
    <dbl>  <dbl>   <dbl> <dbl> <chr>   <dbl>   <dbl>   <dbl>  <dbl>  <dbl>
 1    8.4      1     124    60 Mond~    8.36  0.102   0.0352 0.0941  0.335
 2    8.2      4      96     0 Thur~    8.04  0.101   0.159  0.0907  0.334
 3    7.9      4      82     0 Thur~    8.08  0.0860 -0.184  0.0663  0.334
 4    8.8      4      23    73 Thur~    8.49  0.0857  0.307  0.0659  0.334
 5    8.3      5      85    65 Thur~    8.15  0.0825  0.153  0.0611  0.334
 6    7.3      9      66    21 Mond~    7.39  0.0788 -0.0906 0.0558  0.335
 7    6.8      9      59    61 Mond~    7.54  0.0775 -0.736  0.0539  0.331
 8    8.3      2      40    75 Mond~    8.54  0.0769 -0.243  0.0531  0.334
 9    7.9      1     104    38 Mond~    8.36  0.0765 -0.459  0.0525  0.333
10    7.4     10      38    22 Mond~    7.35  0.0747  0.0485 0.0501  0.335
# ... with 221 more rows, and 2 more variables: .cooksd <dbl>, .std.resid <dbl>
…
